{
	"rooms":
	[
		{
			"id": 0,
			"name": "FOREST CLEARING",
			"desc": "This is a clearing within a dense forest.",
			"components":
			[
				{
					"id": "CONTAINER",
					"inventory":
					[
						{
							"id": "BOULDER",
							"name": "Boulder",
							"desc": "A tall granite boulder.",
							"origin": "A tall boulder stands proud in the center of the clearing.",
							"components":[]
						}
					]
				},
				{
					"id": "CONNECTOR",
					"connections":
					[
						{
							"dir": "N",
							"id": 5
						},
						{
							"dir": "E",
							"id": 4
						},
						{
							"dir": "NE",
							"id": 4
						},
						{
							"dir": "S",
							"id": 1
						},
						{
							"dir": "SE",
							"id": 1
						},
						{
							"dir": "SW",
							"id": 1
						},
						{
							"dir": "W",
							"id": 2
						},
						{
							"dir": "NW",
							"id": 2

						}
					]
				}
			]
		},
		{
			"id": 1,
			"name": "CLIFF FACE",
			"desc": "This is the southward edge of the clearing. A straight rocky cliff face reaches far into the sky.",
			"connections": 	
			[
				{
					"dir": "N",
					"id": 0
				},
				{
					"dir": "NE",
					"id": 0
				},
				{
					"dir": "NW",
					"id": 0
				}
			],
			"items":
			[
				{
					"id": "ROCK",
					"name": "Engraved Rock",
					"desc": "A smooth rock engraved with an eye within a triangle.",
					"origin": "There is smooth engraved rock on the ground here.",
					"components":
					[
						{
							"id": "CARRYABLE",
							"encumberment": 5
						}
					]
				}
			]
		},
		{
			"id": 2,
			"name": "LIGHT FOREST",
			"desc": "This is a thinner area of the forest at the base of a cliff.",
			"connections":
			[
				{
					"dir": "E",
					"id": 0
				},
				{
					"dir": "NE",
					"id": 0
				}
			],
			"items":
			[
				{
					"id": "VINES",
					"name": "Vines",
					"desc": "A pile of thick vines.",
					"origin": "There is a curtain of thick vines growing on the rocky wall.",
					"components":
					[
						{
							"id": "CARRYABLE",
							"encumberment": 5
						},
						{
							"id": "OBSTACLE",
							"connections":
							[
								{
									"dir": "W",
									"id": 3
								}
							]
						}
					]
				}
			]
		},
		{
			"id": 3,
			"name": "HIDDEN CAVE",
			"desc": "This is a damp cavern within the rocky cliff. You cannot see through the darkness.",
			"connections":
			[
				{
					"dir": "E",
					"id": 2
				}
			],
			"items":[]
		},
		{
			"id": 4,
			"name": "THICK FOREST",
			"desc": "This is a denser area of the forest. The thick shrubery and foilage proves impassible.",
			"connections": 	
			[
				{
					"dir": "W",
					"id": 0
				},
				{
					"dir": "NW",
					"id": 0
				}

			],
			"items":[]
		},
		{
			"id": 5,
			"name": "FOREST PATH",
			"desc": "This is an area of the forest with a winding northward path. Ahead the path forks eastward and westward.",
			"connections": 	
			[
				{
					"dir": "S",
					"id": 0
				},
				{
					"dir": "NE",
					"id": 7
				},
				{
					"dir": "NW",
					"id": 6
				}
			],
			"items":[]
		},
		{
			"id": 6,
			"name": "RIVERBANK",
			"desc": "This is a bank of a gently flowing river. The river is too deep and wide to cross safely.",
			"connections":
			[
				{
					"dir": "SE",
					"id": 5
				}
			],
			"items":
			[
				{
					"id": "CHEST",
					"name": "Treasure Chest",
					"desc": "An oak wood chest.",
					"origin": "An oak wood chest, sits half buried in the river bank.",
					"components":
					[
						{
							"id": "CARRYABLE",
							"encumberment": 5
						},
						{
							"id": "LOCKABLE",
							"locked": true,
							"key": "ROCK",
							"desc": "The rock's eye glows yellow and you hear a mechanism click as the chest unlocks."
						},
						{
							"id": "CONTAINER",
							"inventory":
							[
								{
									"id": "GOLD",
									"name": "Nazi Gold Cache",
									"desc": "The warm glow of Nazi gold...",
									"origin": "A huge pile of pure gold ingots lay in the dusty chest.",
									"components":
									[
										{
											"id": "CARRYABLE",
											"encumberment": 5
										}
									]
								}
							]
						}
					]
				}
			]
		},
		{
			"id": 7,
			"name": "HOLLOW TREE",
			"desc": "This is a lighter part of the forest.",
			"connections":
			[
				{
					"dir": "SW",
					"id": 5
				}
			],
			"items":
			[
				{
					"id": "TREE",
					"name": "Ancient Hollow Tree",
					"desc": "An ancient hollow tree.",
					"origin": "There is an eerie ancient tree glowing from within its hollow.",
					"components":
					[
						{
							"id": "CONTAINER",
							"inventory":
							[
								{
									"id": "ORB",
									"name": "Light Orb",
									"desc": "A luminous golden orb is warm to the touch and illuminates the area.",
									"origin": "A luminous golden orb rests inside the tree's hollow.",
									"components":
									[
										{
											"id": "CARRYABLE",
											"encumberment": 5
										}
									]
								}
							]
						}
					]
				}
			]
		}
	],
	"startRoom": 0
}